<?xml version="1.0" standalone="no"?>
<!DOCTYPE svg PUBLIC "-//W3C//DTD SVG 20010904//EN"
 "http://www.w3.org/TR/2001/REC-SVG-20010904/DTD/svg10.dtd">
<svg version="1.0" xmlns="http://www.w3.org/2000/svg"
 width="512.000000pt" height="512.000000pt" viewBox="0 0 512.000000 512.000000"
 preserveAspectRatio="xMidYMid meet">
<metadata>
Created by potrace 1.11, written by Peter Selinger 2001-2013
</metadata>
<g transform="translate(0.000000,512.000000) scale(0.100000,-0.100000)"
fill="#000000" stroke="none">
<path d="M1040 4684 c-241 -28 -298 -45 -301 -91 -6 -99 105 -487 204 -709
l44 -100 -50 -54 c-115 -129 -198 -252 -199 -300 -2 -55 24 -70 119 -70 45 0
83 -2 83 -4 0 -3 -27 -47 -60 -98 -88 -136 -137 -272 -143 -394 -2 -50 1 -58
26 -80 36 -31 45 -30 117 6 33 17 61 30 63 30 2 0 -5 -33 -16 -72 -30 -110
-30 -335 1 -440 l22 -77 -45 -65 c-92 -131 -149 -298 -166 -485 -6 -69 -9
-320 -7 -616 3 -456 5 -503 21 -540 24 -53 63 -93 112 -116 38 -18 106 -19
1723 -19 1840 0 1712 -4 1785 59 70 62 68 45 65 726 -3 595 -4 612 -26 690
-26 93 -98 248 -148 318 l-36 49 23 82 c32 110 32 313 1 426 -11 41 -19 76
-17 78 2 2 30 -10 64 -27 72 -37 80 -37 115 -10 23 18 26 28 26 77 0 118 -65
292 -159 430 -22 34 -41 63 -41 66 0 4 38 6 83 6 96 0 117 13 117 70 0 41
-100 194 -190 290 l-61 65 45 97 c82 177 189 527 202 663 6 54 4 62 -17 82
-64 59 -577 80 -843 35 -141 -24 -244 -49 -365 -87 l-78 -25 -87 41 c-284 133
-656 130 -929 -7 l-69 -34 -96 29 c-242 75 -412 102 -672 106 -113 2 -221 1
-240 -1z m520 -169 c52 -8 146 -27 208 -41 l113 -27 -84 -86 c-152 -154 -252
-338 -298 -548 -21 -93 -22 -127 -26 -663 -6 -738 2 -812 107 -1025 55 -112
194 -298 304 -408 245 -246 612 -347 953 -261 156 39 331 136 445 248 120 118
279 330 329 442 92 201 103 324 96 1039 -5 562 -7 590 -58 745 -51 155 -169
341 -288 454 -34 32 -61 60 -59 61 8 8 226 56 317 70 150 23 374 30 521 16 69
-7 128 -16 132 -20 18 -16 -102 -407 -177 -574 l-25 -58 -38 22 c-20 12 -46
29 -57 36 -50 33 -125 -2 -125 -59 0 -35 27 -61 131 -129 69 -44 239 -207 239
-229 0 -4 -41 -10 -91 -12 -81 -3 -93 -6 -110 -27 -34 -41 -25 -70 53 -167 84
-105 132 -177 163 -248 46 -105 48 -103 -54 -52 -50 26 -99 46 -109 46 -11 0
-31 -9 -46 -21 -36 -28 -34 -62 9 -146 97 -192 118 -399 59 -582 l-18 -53 -48
96 c-51 102 -74 122 -124 110 -38 -10 -51 -41 -59 -139 -14 -183 -64 -413
-113 -523 l-19 -44 -7 37 c-9 48 -38 75 -79 75 -43 0 -56 -15 -100 -118 -73
-172 -180 -331 -274 -408 l-56 -45 -67 66 c-52 50 -75 65 -97 65 -36 0 -68
-33 -78 -79 -10 -47 -82 -121 -188 -194 -49 -33 -109 -84 -134 -113 l-46 -53
-33 43 c-31 41 -68 71 -213 175 -63 45 -121 119 -121 155 0 30 -39 66 -73 66
-22 0 -45 -15 -96 -65 l-68 -65 -47 36 c-96 73 -229 272 -296 444 -28 72 -46
90 -87 90 -38 0 -70 -27 -79 -67 -3 -16 -7 -32 -8 -38 -4 -16 -66 164 -86 250
-22 90 -50 294 -50 358 0 50 -19 82 -54 91 -50 12 -73 -8 -125 -111 l-49 -98
-23 75 c-20 62 -24 96 -24 195 1 139 22 227 86 364 46 99 48 122 13 150 -37
29 -58 27 -153 -19 -46 -22 -86 -39 -88 -36 -7 7 54 133 99 203 25 37 72 101
106 142 62 74 73 102 52 140 -14 28 -37 35 -134 41 l-88 5 87 93 c59 62 120
114 185 157 54 35 100 72 104 81 26 69 -57 133 -119 91 -11 -7 -37 -24 -58
-36 l-37 -23 -29 65 c-71 158 -191 551 -174 568 31 30 479 33 653 4z m1193 10
c357 -62 649 -320 756 -669 12 -38 20 -71 18 -72 -2 -2 -22 23 -45 55 -94 134
-240 261 -300 261 -21 0 -84 -58 -309 -282 l-283 -283 -283 283 c-220 220
-288 282 -308 282 -58 0 -191 -112 -290 -243 -33 -43 -59 -74 -59 -69 0 22 53
168 81 225 189 374 608 584 1022 512z m-141 -1815 c-9 -27 -19 -50 -22 -50 -3
0 -13 23 -22 50 l-16 50 38 0 38 0 -16 -50z m-477 -320 l35 -70 -50 0 -50 0 0
70 c0 55 3 70 15 70 8 0 30 -31 50 -70z m975 0 l0 -70 -50 0 -50 0 35 70 c20
39 42 70 50 70 12 0 15 -15 15 -70z"/>
</g>
</svg>
